{
  "$schema": "https://raw.githubusercontent.com/jsonresume/resume-schema/v1.0.0/schema.json",
  "basics": {
    "name": "Adrian Freisinger",
    "label": "Electronic Engineer",
    "image": "me.jpg",
    "email": "afreisinger@gmail.com",
    "phone": "+54 9 11",
    "url": "http://afreisinger.gitlab.io",
    "summary": "Adrián is a native of Buenos Aires, Argentina. He obtained degrees in Electronic Engineering from the Faculty of Engineering of the University of Buenos Aires and Electronic Technician from ENET N3 de Avellaneda Dr. Salvador Debenedetti (Let's go The Palaá!). Before starting with AFIP, he worked for ANSES as a full-time network engineer. Currently his work focuses on the management of telecommunications projects, his non-work interests vary widely, from computers, electronics, iot, tools, cooking, photography and carpentry.",
    "location": {
      "address": "Gaona Ave,",
      "postalCode": "C1405DKN",
      "city": "Ciudad Autónoma de Buenos Aires",
      "countryCode": "AR",
      "region": "Buenos Aires"
    },
    "profiles": [
      {
        "network": "Twitter",
        "username": "@afreisinger",
        "url": "https://twitter.com/afreisinger"
      },
      {
        "network": "Spotify",
        "username": "afreisinger",
        "url": "https://open.spotify.com/user/afreisinger"
      }
    ]
  },
  "work": [
    {
      "name": "ANSES",
      "location": "Buenos Aires, BA",
      "description": "The National Social Security Administration (Spanish: Administración NAcional de la Seguridad Social), usually shortened as ANSES, is a decentralized body created in 1991, which is in charge of the administration of the national benefits and services of the Social Security in the Argentine Republic.",
      "position": "Network Engineer",
      "url": "https://anses.gob.ar",
      "startDate": "2001-12-01",
      "endDate": "2004-07-01",
      "summary": "Awesome people.",
      "highlights": [
        "Network core monitoring and traffic optimization.",
        "Network annual growth planification according to concrete requirements."
      ]
 
   
    },

    { 
      "name": "AFIP",
      "location": "Buenos Aires, BA",
      "description": "The Federal Administration of Public Income (Spanish: Administración Federal de Ingresos Públicos), usually shortened as AFIP is the revenue service of Argentina. It administers taxation in Argentina.",
      "position": "Network Engineer",
      "url": "https://afip.gob.ar",
      "startDate": "2004-07-01",
      "endDate": "",
      "summary": "We do our best and have fun.",
      "highlights": [
        "Support and propose improvements on new implementations.",
        "Develops, test and implements procedural workarounds and authors corresponding methods of procedures.",
        "Network annual growth planification according to concrete requirements."
      ]



    }




  ],
  "volunteer": [
    {
      "organization": "Universidad de Buenos Aires",
      "position": "Teacher",
      "url": "https://fi.uba.ar/",
      "startDate": "2002-12-01",
      "endDate": "2003-12-01",
      "summary": "Practical work assistant in the microwave and communications laboratory.",
      "highlights": [
        "Awarded 'Teacher of the Month'"
      ]
    }
  ],
  "education": [
    {
      "institution": "Universidad de Buenos Aires",
      "url": "https://fi.uba.ar/",
      "area": "Faculty of Engineering",
      "studyType": "Electronic Engineer",
      "startDate": "1993-01-01",
      "endDate": "2000-01-01",
      "gpa": "8.0"
    },
    {
      "institution": "Comisión Nacional de Actividades Espaciales",
      "url": "https://www.argentina.gob.ar/ciencia/conae",
      "area": "Satellite Communications",
      "studyType": "",
      "startDate": "2021-01-02",
      "endDate": "2021-07-01",
      "gpa": "8.0",
      "courses": [
        "Optical remote sensing",
        "SAR remote sensing"
      ]
    },
  
    {
      "institution": "Centro de Graduados de la Facultad de Ingeniería",
      "url": "https://graduadosfiuba.org/",
      "area": "Developer",
      "studyType": "",
      "startDate": "2021-06-02",
      "endDate": "2021-09-01",
      "gpa": "8.0",
      "courses": [
        "Introduction to Programming with Python",
        "Introduction to Wind Power and Modeling"
      ]
    },

    {
      "institution": "Mikroways",
      "url": "https://www.mikroways.net/",
      "area": "DevOps",
      "studyType": "",
      "startDate": "2020-09-01",
      "endDate": "2021-06-01",
      "gpa": "8.0",
      "courses": [
        "Introduction to CI/CD",
        "DevOps with Docker",
        "Kubernetes for developers",
        "Fundamentals of the OpenStack Cloud with Hands-on Labs"
      ]
    },
    
    {
      "institution": "Udemy",
      "url": "https://www.mikroways.net/",
      "area": "DevOps",
      "studyType": "",
      "startDate": "2020-09-01",
      "endDate": "2021-06-01",
      "gpa": "8.0",
      "courses": [
        "Github and Gitlab advanced",
        "Certified Kubernetes Administrator (CKA) with Practice Tests"
      ]
    }
  
  ],
  
  "awards": [
    {
      "title": "Defender of Public Education.",
      "date": "2001-11-03",
      "summary": "Fight For The Future" 
    },

    {
      "title": "Defender of Internet",
      "summary": "You are the Network, let’s build Together." 
    }

  ],
  



  
  "skills": [
    {
      "name": "DevOps",
      "level": "Junior",
      "keywords": [
        "Kubernetes",
        "Docker",
        "Openstack",
        "Terraform"
      ]
    },
    {
      "name": "Managment",
      "level": "Senior",
      "keywords": [
        "Agile reporting",
        "Roadmaps",
        "Capacity planning",
        "Dependency managment"
      ]
    }
  ],
  "languages": [
    {
      "language": "Spanish",
      "fluency": "Native speaker"
    },
    {
      "language": "English"
    }
  
  
  
  ],
  "interests": [
    {
      "name": "Cooking",
      "keywords": [
        "Pierre Herme ",
        "Paco Torreblanca",
        "Ramon Morató"
      ]
      
    },
    
    {
      "name": "Electronics",
      "keywords": [
        "RAKWireless",
        "Arduino",
        "IoT",
        "LoRa",
        "The Things Network",
        "RaspberryPi"
      ]
    },

    {
      "name": "Free time",
      "keywords": [
        "To be with my children",
        "Riding a bicycle",
        "PS4"
      ]
    }





  ],
  "references": [
    {
      "name": "Ing. Marcelo Tapia",
      "url": "https://telkor.com.ar/",
      "reference": "It is my pleasure to recommend Adrian, his performance working as a consultant for Telkor Consulting Services S.R.L proved that he will be a valuable addition to any company. For any questions, please, contact me at mtapia@telkor.com.ar"
    }
  ],
  "projects": [
    {
      "name": "Multichannel Biopotential Acquisition System",
      "description": "A biopotential measurement system composed of acquisition hardware and software capable of relaying real-time signals.",
      "highlights": [
        "Thesis"
      ],
      "keywords": [
        "ECG",
        "EMG",
        "EEG"
      ],
      "startDate": "2001-01-03",
      "endDate": "2001-08-24",
      "url": "https://fi.uba.ar",
      "roles": [
        "Team lead",
        "Designer"
      ],
      "entity": "FIUBA",
      "type": "application"
    }
  
    
  
  
  ],
  "meta": {
    "canonical": "https://raw.githubusercontent.com/jsonresume/resume-schema/master/resume.json",
    "version": "v1.0.0",
    "lastModified": "2017-12-24T15:53:00"
  }
}
